<svg width="20" height="20" viewBox="0 0 20 20" fill="none" xmlns="http://www.w3.org/2000/svg">
<g id="mail">
<mask id="mask0_734_2338" style="mask-type:alpha" maskUnits="userSpaceOnUse" x="0" y="0" width="20" height="20">
<rect id="Bounding box" width="20" height="20" fill="#D9D9D9"/>
</mask>
<g mask="url(#mask0_734_2338)">
<path id="mail_2" d="M3.67276 16.25C3.2289 16.25 2.85297 16.096 2.54499 15.788C2.237 15.48 2.08301 15.1041 2.08301 14.6602V5.33975C2.08301 4.89589 2.237 4.51997 2.54499 4.21198C2.85297 3.90399 3.2289 3.75 3.67276 3.75H16.3265C16.7704 3.75 17.1463 3.90399 17.4543 4.21198C17.7623 4.51997 17.9163 4.89589 17.9163 5.33975V14.6602C17.9163 15.1041 17.7623 15.48 17.4543 15.788C17.1463 16.096 16.7704 16.25 16.3265 16.25H3.67276ZM16.583 6.36854L10.4242 10.2945C10.3613 10.33 10.2956 10.3616 10.2272 10.3894C10.1588 10.4172 10.083 10.431 9.99965 10.431C9.91632 10.431 9.84047 10.4189 9.77209 10.3946C9.70372 10.3703 9.63748 10.3365 9.57338 10.2932L3.41632 6.36854V14.6602C3.41632 14.735 3.44036 14.7964 3.48845 14.8445C3.53653 14.8926 3.59797 14.9166 3.67276 14.9166H16.3265C16.4013 14.9166 16.4628 14.8926 16.5109 14.8445C16.5589 14.7964 16.583 14.735 16.583 14.6602V6.36854ZM9.99965 9.20831L16.4964 5.08331H3.5237L9.99965 9.20831ZM3.41632 6.36854V6.55767V5.57169V5.59131V5.56921V6.56083V6.36854Z" fill="#1C1B1F"/>
</g>
</g>
</svg>
