<svg xmlns="http://www.w3.org/2000/svg" width="20" height="20" viewBox="0 0 20 20" fill="none">
  <mask id="mask0_733_1820" style="mask-type:alpha" maskUnits="userSpaceOnUse" x="0" y="0" width="20" height="20">
    <rect width="20" height="20" fill="#D9D9D9"/>
  </mask>
  <g mask="url(#mask0_733_1820)">
    <path d="M2.29411 16.0897C2.07991 16.0897 1.89369 16.0105 1.73544 15.8523C1.57718 15.694 1.49805 15.5063 1.49805 15.289V14.1653C1.49805 13.7281 1.61237 13.3445 1.84101 13.0144C2.06963 12.6843 2.36916 12.4324 2.73959 12.2589C3.50377 11.8854 4.30012 11.5972 5.12863 11.3942C5.95716 11.1912 6.85112 11.0897 7.81053 11.0897C8.76993 11.0897 9.66389 11.1947 10.4924 11.4046C11.3209 11.6145 12.1173 11.8993 12.8815 12.2589C13.2519 12.4324 13.5514 12.6843 13.78 13.0144C14.0087 13.3445 14.123 13.7281 14.123 14.1653V15.289C14.123 15.5063 14.0439 15.694 13.8856 15.8523C13.7274 16.0105 13.5411 16.0897 13.3269 16.0897H2.29411ZM15.5284 16.0897C15.6168 15.9886 15.6755 15.8692 15.7045 15.7314C15.7335 15.5937 15.748 15.4508 15.748 15.3028V14.0512C15.748 13.5598 15.6279 13.0593 15.3879 12.5498C15.1478 12.0403 14.7817 11.6081 14.2897 11.2532C14.8762 11.3365 15.4136 11.4655 15.9018 11.6402C16.3901 11.8149 16.8695 12.0213 17.3402 12.2596C17.784 12.4893 18.0885 12.7635 18.2536 13.0822C18.4186 13.4009 18.5012 13.7864 18.5012 14.2387V15.2948C18.5012 15.5082 18.422 15.694 18.2638 15.8523C18.1055 16.0105 17.9197 16.0897 17.7063 16.0897H15.5284ZM7.81053 9.72268C6.98068 9.72268 6.28711 9.44404 5.72982 8.88676C5.17253 8.32947 4.89388 7.6359 4.89388 6.80605C4.89388 5.97619 5.17253 5.28262 5.72982 4.72534C6.28711 4.16805 6.98068 3.8894 7.81053 3.8894C8.64037 3.8894 9.33394 4.16805 9.89123 4.72534C10.4485 5.28262 10.7272 5.97619 10.7272 6.80605C10.7272 7.6359 10.4485 8.32947 9.89123 8.88676C9.33394 9.44404 8.64037 9.72268 7.81053 9.72268ZM15.006 6.80605C15.006 7.6359 14.7273 8.32947 14.17 8.88676C13.6127 9.44404 12.9212 9.72268 12.0953 9.72268C11.9973 9.72268 11.8583 9.70852 11.6783 9.68022C11.4983 9.65191 11.3612 9.62494 11.2672 9.5993C11.582 9.2042 11.8276 8.76888 12.0041 8.29332C12.1806 7.81777 12.2688 7.32393 12.2688 6.8118C12.2688 6.29966 12.1788 5.8078 11.9988 5.33622C11.8188 4.86463 11.5749 4.43044 11.2672 4.03363C11.4008 3.9909 11.5413 3.95618 11.6887 3.92947C11.8361 3.90276 11.9721 3.8894 12.0966 3.8894C12.9216 3.8894 13.6127 4.16805 14.17 4.72534C14.7273 5.28262 15.006 5.97619 15.006 6.80605ZM2.83136 14.7563H12.7897V14.1693C12.7897 13.9987 12.7496 13.856 12.6695 13.7411C12.5894 13.6263 12.4617 13.532 12.2865 13.4583C11.6284 13.1463 10.9187 12.8958 10.1575 12.7067C9.39626 12.5176 8.61394 12.423 7.81053 12.423C7.00711 12.423 6.22479 12.5141 5.46357 12.6962C4.70236 12.8784 3.99269 13.1324 3.33457 13.4583C3.15936 13.532 3.03169 13.6263 2.95155 13.7411C2.87142 13.856 2.83136 13.9987 2.83136 14.1693V14.7563ZM7.81053 8.38938C8.26886 8.38938 8.64733 8.24008 8.94594 7.94147C9.24455 7.64286 9.39386 7.26438 9.39386 6.80605C9.39386 6.34772 9.24455 5.96925 8.94594 5.67063C8.64733 5.37202 8.26886 5.22272 7.81053 5.22272C7.35219 5.22272 6.97372 5.37202 6.67511 5.67063C6.3765 5.96925 6.22719 6.34772 6.22719 6.80605C6.22719 7.26438 6.3765 7.64286 6.67511 7.94147C6.97372 8.24008 7.35219 8.38938 7.81053 8.38938Z" fill="#451AA3"/>
  </g>
</svg>